Datenvorbereitung • rBasics
…
Drei der Urväter der zwei großen Strömungen der modernen Statistik
haben sich aus dem Grabe erhoben, um noch einmal beim Tippen richtig
abzuräumen. Reverant Thomas Bayes, Jerzy Neyman und Egon Pearson stellen
sich dem Expertenwissen der drei Studenten Alice, Bob und Charlie.

Um den Datensatz ausgeben zu lassen, kannst Du einfach den
Datensatznamen ausführen.

tipp_wm

## # A tibble: 384 × 7
##    Spieltag Person       Tipp  Ergebnis Tipp_Richtung Wahre_Richtung Art        
##       <dbl> <chr>        <chr> <chr>    <chr>         <chr>          <chr>      
##  1        1 Thomas_Bayes 2:0   5:0      S             S              Gruppenpha…
##  2        2 Thomas_Bayes 1:3   0:1      N             N              Gruppenpha…
##  3        2 Thomas_Bayes 0:0   0:1      U             N              Gruppenpha…
##  4        2 Thomas_Bayes 1:2   3:3      N             U              Gruppenpha…
##  5        3 Thomas_Bayes 2:1   2:1      S             S              Gruppenpha…
##  6        3 Thomas_Bayes 3:0   1:1      S             U              Gruppenpha…
##  7        3 Thomas_Bayes 0:2   0:1      N             N              Gruppenpha…
##  8        3 Thomas_Bayes 4:0   2:0      S             S              Gruppenpha…
##  9        4 Thomas_Bayes 2:1   0:1      S             N              Gruppenpha…
## 10        4 Thomas_Bayes 3:0   0:1      S             N              Gruppenpha…
## # … with 374 more rows
…
(Der Datensatz ist in der Form nicht tidy.)

Du wirst schnell sehen, wie sehr sich die Methoden des
tidyverse am normalen Englisch orientieren. Wenn wir zum
Beispiel nur auf die Tipps von Reverent Bayes schauen möchten, können
wir mit filter() einen einfach Filter setzen. Dabei müssen
wir nur die Spalte mit der Information über die Person auswählen und mit
einem doppelten Gleichheitszeichen abfragen, ob diese Herrn Bayes
entspricht.

tipp_wm %>% 
  filter(Person == "Thomas_Bayes")

## # A tibble: 64 × 7
##    Spieltag Person       Tipp  Ergebnis Tipp_Richtung Wahre_Richtung Art        
##       <dbl> <chr>        <chr> <chr>    <chr>         <chr>          <chr>      
##  1        1 Thomas_Bayes 2:0   5:0      S             S              Gruppenpha…
##  2        2 Thomas_Bayes 1:3   0:1      N             N              Gruppenpha…
##  3        2 Thomas_Bayes 0:0   0:1      U             N              Gruppenpha…
##  4        2 Thomas_Bayes 1:2   3:3      N             U              Gruppenpha…
##  5        3 Thomas_Bayes 2:1   2:1      S             S              Gruppenpha…
##  6        3 Thomas_Bayes 3:0   1:1      S             U              Gruppenpha…
##  7        3 Thomas_Bayes 0:2   0:1      N             N              Gruppenpha…
##  8        3 Thomas_Bayes 4:0   2:0      S             S              Gruppenpha…
##  9        4 Thomas_Bayes 2:1   0:1      S             N              Gruppenpha…
## 10        4 Thomas_Bayes 3:0   0:1      S             N              Gruppenpha…
## # … with 54 more rows
…
tipp_wm %>% 
  mutate(Neue_Spalte = Spieltag + 1)

## # A tibble: 384 × 8
##    Spieltag Person       Tipp  Ergebnis Tipp_Richtung Wahre_Rich…¹ Art   Neue_…²
##       <dbl> <chr>        <chr> <chr>    <chr>         <chr>        <chr>   <dbl>
##  1        1 Thomas_Bayes 2:0   5:0      S             S            Grup…       2
##  2        2 Thomas_Bayes 1:3   0:1      N             N            Grup…       3
##  3        2 Thomas_Bayes 0:0   0:1      U             N            Grup…       3
##  4        2 Thomas_Bayes 1:2   3:3      N             U            Grup…       3
##  5        3 Thomas_Bayes 2:1   2:1      S             S            Grup…       4
##  6        3 Thomas_Bayes 3:0   1:1      S             U            Grup…       4
##  7        3 Thomas_Bayes 0:2   0:1      N             N            Grup…       4
##  8        3 Thomas_Bayes 4:0   2:0      S             S            Grup…       4
##  9        4 Thomas_Bayes 2:1   0:1      S             N            Grup…       5
## 10        4 Thomas_Bayes 3:0   0:1      S             N            Grup…       5
## # … with 374 more rows, and abbreviated variable names ¹​Wahre_Richtung,
## #   ²​Neue_Spalte

Möchten wir nun bestimmte Spalten auswählen, können wir das einfach
mit select() machen. Erneut nach genau dem selben Schema.
Hier wählen wir die Spalten Spieltag, Person
und Ergebnis aus. Man kann an dieser Stelle auch Spalten
umbenennen, indem man den neuen Namen einfach vor den Spaltennamen
schreibt. Wir machen exemplarisch aus Person einfach mal
Tipper.

tipp_wm %>% 
  select(Spieltag, Tipper = Person, Ergebnis)

## # A tibble: 384 × 3
##    Spieltag Tipper       Ergebnis
##       <dbl> <chr>        <chr>   
##  1        1 Thomas_Bayes 5:0     
##  2        2 Thomas_Bayes 0:1     
##  3        2 Thomas_Bayes 0:1     
##  4        2 Thomas_Bayes 3:3     
##  5        3 Thomas_Bayes 2:1     
##  6        3 Thomas_Bayes 1:1     
##  7        3 Thomas_Bayes 0:1     
##  8        3 Thomas_Bayes 2:0     
##  9        4 Thomas_Bayes 0:1     
## 10        4 Thomas_Bayes 0:1     
## # … with 374 more rows

Manchmal möchte man aber Spalten umbennen und alle Spalten im
Datensatz behalten. Wir erinnern uns, select() wählt nur
die explizit genannten aus. Eine Lösung bietet rename() mit
genau der gleichen Syntax, nur werden hier alle weiteren Spalten
behalten.

tipp_wm %>% 
  rename(Tipper = Person)

## # A tibble: 384 × 7
##    Spieltag Tipper       Tipp  Ergebnis Tipp_Richtung Wahre_Richtung Art        
##       <dbl> <chr>        <chr> <chr>    <chr>         <chr>          <chr>      
##  1        1 Thomas_Bayes 2:0   5:0      S             S              Gruppenpha…
##  2        2 Thomas_Bayes 1:3   0:1      N             N              Gruppenpha…
##  3        2 Thomas_Bayes 0:0   0:1      U             N              Gruppenpha…
##  4        2 Thomas_Bayes 1:2   3:3      N             U              Gruppenpha…
##  5        3 Thomas_Bayes 2:1   2:1      S             S              Gruppenpha…
##  6        3 Thomas_Bayes 3:0   1:1      S             U              Gruppenpha…
##  7        3 Thomas_Bayes 0:2   0:1      N             N              Gruppenpha…
##  8        3 Thomas_Bayes 4:0   2:0      S             S              Gruppenpha…
##  9        4 Thomas_Bayes 2:1   0:1      S             N              Gruppenpha…
## 10        4 Thomas_Bayes 3:0   0:1      S             N              Gruppenpha…
## # … with 374 more rows
So weit so gut. Aber wozu brauchen wir nun diese kryptische Pipe? Es
ist äußerst selten, dass man nur einen Befehl auf einmal anwenden
möchte. Wenn wir zum Beispiel die drei gelernten Funktionen innerhalb
eines Befehls kombinieren möchten, können wir diese einfach mit einer
Pipe verbinden. Wir erstellen also zuerst eine neue Spalte, filtern alle
Einträge von Bob heraus und schauen uns dann nur die drei Spalten
Person, Ergebnis und Neue_Spalte
an.

tipp_wm %>% 
  mutate(Neue_Spalte = Spieltag + 1) %>% 
  filter(Person == "Bob") %>% 
  select(Person, Ergebnis, Neue_Spalte)

## # A tibble: 64 × 3
##    Person Ergebnis Neue_Spalte
##    <chr>  <chr>          <dbl>
##  1 Bob    5:0                2
##  2 Bob    0:1                3
##  3 Bob    0:1                3
##  4 Bob    3:3                3
##  5 Bob    2:1                4
##  6 Bob    1:1                4
##  7 Bob    0:1                4
##  8 Bob    2:0                4
##  9 Bob    0:1                5
## 10 Bob    0:1                5
## # … with 54 more rows
…
tipp_wm %>% 
  mutate(Phase = if_else(Art == "Gruppenphase", "Gruppe", "KO"))

## # A tibble: 384 × 8
##    Spieltag Person       Tipp  Ergebnis Tipp_Richtung Wahre_Richtung Art   Phase
##       <dbl> <chr>        <chr> <chr>    <chr>         <chr>          <chr> <chr>
##  1        1 Thomas_Bayes 2:0   5:0      S             S              Grup… Grup…
##  2        2 Thomas_Bayes 1:3   0:1      N             N              Grup… Grup…
##  3        2 Thomas_Bayes 0:0   0:1      U             N              Grup… Grup…
##  4        2 Thomas_Bayes 1:2   3:3      N             U              Grup… Grup…
##  5        3 Thomas_Bayes 2:1   2:1      S             S              Grup… Grup…
##  6        3 Thomas_Bayes 3:0   1:1      S             U              Grup… Grup…
##  7        3 Thomas_Bayes 0:2   0:1      N             N              Grup… Grup…
##  8        3 Thomas_Bayes 4:0   2:0      S             S              Grup… Grup…
##  9        4 Thomas_Bayes 2:1   0:1      S             N              Grup… Grup…
## 10        4 Thomas_Bayes 3:0   0:1      S             N              Grup… Grup…
## # … with 374 more rows

Für Regressionsanalysen brauchen wir hingegen Dummy Variablen. Diese
können wir auf genau dieselbe Art und Weise erstellen. Wenn die
Phase gleich der Gruppenphase ist, schreibe
eine 1, ansonsten eine 0. Das gleiche Prinzip gilt für die Dummy
Variable von KO.

tipp_wm %>% 
  mutate(Gruppe = if_else(Phase == "Gruppe", 1, 0),
         KO = if_else(Phase == "KO", 1, 0))

## # A tibble: 384 × 10
##    Spieltag Person       Tipp  Ergebnis Tipp_…¹ Wahre…² Art   Phase Gruppe    KO
##       <dbl> <chr>        <chr> <chr>    <chr>   <chr>   <chr> <chr>  <dbl> <dbl>
##  1        1 Thomas_Bayes 2:0   5:0      S       S       Grup… Grup…      1     0
##  2        2 Thomas_Bayes 1:3   0:1      N       N       Grup… Grup…      1     0
##  3        2 Thomas_Bayes 0:0   0:1      U       N       Grup… Grup…      1     0
##  4        2 Thomas_Bayes 1:2   3:3      N       U       Grup… Grup…      1     0
##  5        3 Thomas_Bayes 2:1   2:1      S       S       Grup… Grup…      1     0
##  6        3 Thomas_Bayes 3:0   1:1      S       U       Grup… Grup…      1     0
##  7        3 Thomas_Bayes 0:2   0:1      N       N       Grup… Grup…      1     0
##  8        3 Thomas_Bayes 4:0   2:0      S       S       Grup… Grup…      1     0
##  9        4 Thomas_Bayes 2:1   0:1      S       N       Grup… Grup…      1     0
## 10        4 Thomas_Bayes 3:0   0:1      S       N       Grup… Grup…      1     0
## # … with 374 more rows, and abbreviated variable names ¹​Tipp_Richtung,
## #   ²​Wahre_Richtung
…
tipp_wm %>% 
  mutate(Punkte = case_when(Tipp == Ergebnis ~ 3,
                            Tipp_Richtung == Wahre_Richtung ~ 1,
                            TRUE ~ 0))

## # A tibble: 384 × 9
##    Spieltag Person       Tipp  Ergebnis Tipp_Richtung Wahre…¹ Art   Phase Punkte
##       <dbl> <chr>        <chr> <chr>    <chr>         <chr>   <chr> <chr>  <dbl>
##  1        1 Thomas_Bayes 2:0   5:0      S             S       Grup… Grup…      1
##  2        2 Thomas_Bayes 1:3   0:1      N             N       Grup… Grup…      1
##  3        2 Thomas_Bayes 0:0   0:1      U             N       Grup… Grup…      0
##  4        2 Thomas_Bayes 1:2   3:3      N             U       Grup… Grup…      0
##  5        3 Thomas_Bayes 2:1   2:1      S             S       Grup… Grup…      3
##  6        3 Thomas_Bayes 3:0   1:1      S             U       Grup… Grup…      0
##  7        3 Thomas_Bayes 0:2   0:1      N             N       Grup… Grup…      1
##  8        3 Thomas_Bayes 4:0   2:0      S             S       Grup… Grup…      1
##  9        4 Thomas_Bayes 2:1   0:1      S             N       Grup… Grup…      0
## 10        4 Thomas_Bayes 3:0   0:1      S             N       Grup… Grup…      0
## # … with 374 more rows, and abbreviated variable name ¹​Wahre_Richtung
…
tipp_wm <- tipp_wm %>% 
  mutate(Punkte = case_when(Tipp == Ergebnis ~ 3,
                            Tipp_Richtung == Wahre_Richtung ~ 1,
                            TRUE ~ 0))

Wollen wir Spalten logarithmieren oder standardisieren, können wir
dies mit log() respektive scale() machen. Zur
Illustration behalten wir nur die Spalten der Spieltage.

tipp_wm %>% 
  mutate(Spieltag_lg = log(Spieltag),
         Spieltag_z = scale(Spieltag)) %>% 
  select(Spieltag, Spieltag_lg, Spieltag_z)

## # A tibble: 384 × 3
##    Spieltag Spieltag_lg Spieltag_z[,1]
##       <dbl>       <dbl>          <dbl>
##  1        1       0              -1.68
##  2        2       0.693          -1.52
##  3        2       0.693          -1.52
##  4        2       0.693          -1.52
##  5        3       1.10           -1.35
##  6        3       1.10           -1.35
##  7        3       1.10           -1.35
##  8        3       1.10           -1.35
##  9        4       1.39           -1.19
## 10        4       1.39           -1.19
## # … with 374 more rows

Mit mutate_at() erhält man die Möglichkeit eine Funktion
wie log() gleich auf mehrere Spalten anzuwenden. Dabei
müssen die Spalten im vars() Argument verpackt werden.

tipp_wm %>% 
  mutate_at(vars(Spieltag, Punkte), log)

## # A tibble: 384 × 9
##    Spieltag Person       Tipp  Ergebnis Tipp_Richt…¹ Wahre…² Art   Phase  Punkte
##       <dbl> <chr>        <chr> <chr>    <chr>        <chr>   <chr> <chr>   <dbl>
##  1    0     Thomas_Bayes 2:0   5:0      S            S       Grup… Grup…    0   
##  2    0.693 Thomas_Bayes 1:3   0:1      N            N       Grup… Grup…    0   
##  3    0.693 Thomas_Bayes 0:0   0:1      U            N       Grup… Grup… -Inf   
##  4    0.693 Thomas_Bayes 1:2   3:3      N            U       Grup… Grup… -Inf   
##  5    1.10  Thomas_Bayes 2:1   2:1      S            S       Grup… Grup…    1.10
##  6    1.10  Thomas_Bayes 3:0   1:1      S            U       Grup… Grup… -Inf   
##  7    1.10  Thomas_Bayes 0:2   0:1      N            N       Grup… Grup…    0   
##  8    1.10  Thomas_Bayes 4:0   2:0      S            S       Grup… Grup…    0   
##  9    1.39  Thomas_Bayes 2:1   0:1      S            N       Grup… Grup… -Inf   
## 10    1.39  Thomas_Bayes 3:0   0:1      S            N       Grup… Grup… -Inf   
## # … with 374 more rows, and abbreviated variable names ¹​Tipp_Richtung,
## #   ²​Wahre_Richtung

Ein paar wichtige Konzepte fehlen uns noch. Dafür schauen wir uns
einen neuen Datensatz namens big_five an. Der Datensatz
beinhaltet soziodemographische Daten wie Alter,
Geschlecht und Herkunft sowie Spalten für die
durchschnittliche Ausprägung von Extraversion,
Neurotizismus, Verträglichkeit und
Gewissenhaftigkeit. Für den fünften Persönlichkeitsfaktor
Offenheit wurde noch kein durchschnittlicher Wert
berechnet. Es gibt 10 Items O1 bis O10, die
die Dimension der Offenheit abgefragt haben.

big_five

## # A tibble: 200 × 17
##    Alter Gesch…¹ Herku…² Extra…³ Neuro…⁴ Vertr…⁵ Gewis…⁶    O1    O2    O3    O4
##    <dbl> <chr>   <chr>     <dbl>   <dbl>   <dbl>   <dbl> <dbl> <dbl> <dbl> <dbl>
##  1    36 m       DE          3       1.9     3.4     3.3     5     1     5     1
##  2    30 f       US          3.1     3.4     3.1     2.7     5     3     5     3
##  3    23 m       US          3.4     2.4     3.6     3       3     3     5     3
##  4    54 m       US          3.3     4.2     3.6     3       2     5     3     4
##  5    24 f       US          3       2.8     3       3.3     5     1     5     1
##  6    14 f       US          2.8     3.5     3.2     3.3     5     1     5     2
##  7    32 m       HK          3.5     3.1     4.2     3       3     1     5     1
##  8    20 m       IN          3.5     2.6     3.5     2.7     2     1     3     1
##  9    29 f       IN          3       3.7     3.2     2.9     4     1     5     1
## 10    17 m       US          3.1     3.6     3       2.9     4     3     4     5
## # … with 190 more rows, 6 more variables: O5 <dbl>, O6 <dbl>, O7 <dbl>,
## #   O8 <dbl>, O9 <dbl>, O10 <dbl>, and abbreviated variable names ¹​Geschlecht,
## #   ²​Herkunft, ³​Extraversion, ⁴​Neurotizismus, ⁵​Vertraeglichkeit,
## #   ⁶​Gewissenhaftigkeit
…
Der Doppelpunkt liest sich hier zum Beispiel als O1 bis O10. Erst
einmal ausgewählt, ist der Rest schnell erledigt. Wir erstellen mit
mutate() eine neue Spalte namens Offenheit und
erhalten mit rowMeans() die Mittelwerte pro Zeile (row),
also pro Person. Es gibt eine äquivalente Funktion
rowSums() zum Summieren. Anschließend möchten wir die
einzelnen Items nicht im Datensatz, sondern nur die soziodemographischen
Daten und die fünf Dimensionen der Persönlichkeitsfaktoren behalten.

big_five %>% 
  mutate(Offenheit = rowMeans(vars)) %>% 
  select(Alter:Gewissenhaftigkeit, Offenheit)

## # A tibble: 200 × 8
##    Alter Geschlecht Herkunft Extraversion Neurotizismus Vertra…¹ Gewis…² Offen…³
##    <dbl> <chr>      <chr>           <dbl>         <dbl>    <dbl>   <dbl>   <dbl>
##  1    36 m          DE                3             1.9      3.4     3.3     3.6
##  2    30 f          US                3.1           3.4      3.1     2.7     3.8
##  3    23 m          US                3.4           2.4      3.6     3       3.2
##  4    54 m          US                3.3           4.2      3.6     3       2.9
##  5    24 f          US                3             2.8      3       3.3     3.5
##  6    14 f          US                2.8           3.5      3.2     3.3     3.6
##  7    32 m          HK                3.5           3.1      4.2     3       2.7
##  8    20 m          IN                3.5           2.6      3.5     2.7     2.7
##  9    29 f          IN                3             3.7      3.2     2.9     3.6
## 10    17 m          US                3.1           3.6      3       2.9     3.5
## # … with 190 more rows, and abbreviated variable names ¹​Vertraeglichkeit,
## #   ²​Gewissenhaftigkeit, ³​Offenheit
…
big_five %>% 
  mutate(Offenheit = rowMeans(vars)) %>% 
  select(-(O1:O10))

Beachte die Klammern um O1:O10. Was ist eigentlich, wenn
man nur Spalten mit Zahlen im Datensatz behalten möchte? Mit
select_if() ist eine speziell auf solche Aufgaben
zugeschnittene Funktion verfügbar. Wenn die Spalte
numerisch ist (is.numeric), wird sie behalten.

big_five %>% 
  select_if(is.numeric)

## # A tibble: 200 × 15
##    Alter Extravers…¹ Neuro…² Vertr…³ Gewis…⁴    O1    O2    O3    O4    O5    O6
##    <dbl>       <dbl>   <dbl>   <dbl>   <dbl> <dbl> <dbl> <dbl> <dbl> <dbl> <dbl>
##  1    36         3       1.9     3.4     3.3     5     1     5     1     4     1
##  2    30         3.1     3.4     3.1     2.7     5     3     5     3     4     1
##  3    23         3.4     2.4     3.6     3       3     3     5     3     4     1
##  4    54         3.3     4.2     3.6     3       2     5     3     4     3     3
##  5    24         3       2.8     3       3.3     5     1     5     1     5     1
##  6    14         2.8     3.5     3.2     3.3     5     1     5     2     2     1
##  7    32         3.5     3.1     4.2     3       3     1     5     1     5     1
##  8    20         3.5     2.6     3.5     2.7     2     1     3     1     4     1
##  9    29         3       3.7     3.2     2.9     4     1     5     1     5     1
## 10    17         3.1     3.6     3       2.9     4     3     4     5     4     2
## # … with 190 more rows, 4 more variables: O7 <dbl>, O8 <dbl>, O9 <dbl>,
## #   O10 <dbl>, and abbreviated variable names ¹​Extraversion, ²​Neurotizismus,
## #   ³​Vertraeglichkeit, ⁴​Gewissenhaftigkeit

Ein weiterer praktischer Sonderfall ist select_at(). Die
Funktionsweise ist die selbe wie bei mutate_at(). Der
Vorteil ist die Integration von starts_with() und
ends_with() womit man, wie der Name bereits suggeriert,
Anfangs- respektive Endbuchstaben oder ganze Wörter auswählen kann. Es
werden also nur die Spalten behalten, die mit der Zeichenkombination
starten oder enden. Hier erhalten wir alle Spalten mit dem
Anfangsbuchstaben E. Also hier nur Extraversion.

big_five %>% 
  select_at(vars(starts_with("E")))

## # A tibble: 200 × 1
##    Extraversion
##           <dbl>
##  1          3  
##  2          3.1
##  3          3.4
##  4          3.3
##  5          3  
##  6          2.8
##  7          3.5
##  8          3.5
##  9          3  
## 10          3.1
## # … with 190 more rows
…
