Deskriptive Statistik • rBasics
…
tipp_wm_wide %>% 
  na.omit() 

## # A tibble: 47 × 7
##    Thomas_Bayes Egon_Pearson Jerzy_Neyman Alice Bob   Charlie Ergebnis
##    <chr>        <chr>        <chr>        <chr> <chr> <chr>   <chr>   
##  1 2:0          1:0          2:1          2:1   3:1   2:1     5:0     
##  2 1:3          0:0          0:2          1:2   0:2   0:2     0:1     
##  3 0:0          0:2          1:1          1:1   2:1   1:1     0:1     
##  4 1:2          1:1          2:1          2:4   2:2   1:0     3:3     
##  5 0:2          1:2          0:2          1:2   2:1   1:2     0:1     
##  6 4:0          1:2          3:0          1:0   3:0   4:0     2:0     
##  7 2:1          0:0          1:1          1:1   0:1   1:0     0:1     
##  8 3:0          1:0          2:0          3:1   3:1   2:0     0:1     
##  9 2:1          2:0          1:1          2:1   2:0   3:1     1:1     
## 10 1:1          1:0          1:0          2:1   1:0   2:1     1:0     
## # … with 37 more rows
…
