Inferenzstatistik • rBasics
…
Falls die Stichprobenplanung für den gewünschten Test nicht in
pwr implementiert ist, sei an dieser Stelle auf g*Power verwiesen.

Exkurs: Dollar-Operator

Während der Inferenzstatistik lässt es sich leider nicht vermeiden,
ab und an das Dollarzeichen zu verwenden, um eine Spalte des Datensatzes
auszuwählen. Warum geht es hier nicht einfach zuvor mit
select()? Schauen wir uns mal genauer an, was die beiden
Befehle jeweils zurückgeben.

tipp_wm %>% 
  select(Person)

## # A tibble: 384 × 1
##    Person      
##    <chr>       
##  1 Thomas_Bayes
##  2 Thomas_Bayes
##  3 Thomas_Bayes
##  4 Thomas_Bayes
##  5 Thomas_Bayes
##  6 Thomas_Bayes
##  7 Thomas_Bayes
##  8 Thomas_Bayes
##  9 Thomas_Bayes
## 10 Thomas_Bayes
## # … with 374 more rows
…
Exkurs: Faktoren

Für Varianzanalysen müssen wir einen bisher nicht erwähnten neuen
Datentyp einführen - den Faktor. Faktoren sind Characters mit
festgelegten Ausprägungsgraden. Wir schauen uns an dieser Stelle nur an,
wie man Faktoren erstellen kann. Dabei greifen wir auf Funktionen aus
dem Kapitel der Datenvorbereitung zu. Der Datensatz für die
Varianzanalysen hat die Variablen iq,
kreativitaet, zeitpunkt, gruppe
und person_id.

## # A tibble: 90 × 5
##       iq kreativitaet zeitpunkt gruppe person_id
##    <dbl>        <dbl> <fct>     <fct>      <dbl>
##  1  96.6         76.2 t1        A              1
##  2 104.          57.0 t1        B              2
##  3 117.          63.5 t1        C              3
##  4  91.9         18.6 t1        D              4
##  5 110.          73.6 t1        E              5
##  6 124.          55.5 t1        F              6
##  7  97.2         51.4 t1        A              7
##  8 104.          71.8 t1        B              8
##  9 119.          53.8 t1        C              9
## 10  92.9         42.3 t1        D             10
## # … with 80 more rows
…
Im folgenden seien zwei mögliche Post-Hoc Vergleiche vorgestellt.

TukeyHSD

Für den Test von Tukey auf Honest Significant Differences (HSD)
ändert sich nicht viel im Vergleich zur ANOVA. Nur wird nach der ANOVA
die Funktion TukeyHSD() aufgerufen und dann der Output ins
aufgeräumte Format gebracht.

aov(iq ~ zeitpunkt * gruppe, data = repeated) %>% 
  TukeyHSD() %>%  
  tidy()

## # A tibble: 171 × 7
##    term      contrast null.value estimate conf.low conf.high adj.p.value
##    <chr>     <chr>         <dbl>    <dbl>    <dbl>     <dbl>       <dbl>
##  1 zeitpunkt t2-t1             0   -5.15    -13.8       3.47       0.331
##  2 zeitpunkt t3-t1             0   -2.23    -10.9       6.39       0.810
##  3 zeitpunkt t3-t2             0    2.92     -5.70     11.5        0.697
##  4 gruppe    B-A               0    7.45     -7.47     22.4        0.689
##  5 gruppe    C-A               0    3.34    -11.6      18.3        0.986
##  6 gruppe    D-A               0   -2.54    -17.5      12.4        0.996
##  7 gruppe    E-A               0   11.4      -3.51     26.3        0.233
##  8 gruppe    F-A               0   -0.124   -15.0      14.8        1.00 
##  9 gruppe    C-B               0   -4.11    -19.0      10.8        0.966
## 10 gruppe    D-B               0   -9.99    -24.9       4.93       0.375
## # … with 161 more rows
…
