Extras • rBasics
…
vec <- c(1, 2, 3, 4)

erhält man mit

vec[3]

## [1] 3

Eckigen Klammern können auch bei tibbles verwendet werden. Wählen wir
zuerst erneut die Personenspalte aus.

tipp_wm[ ,"Person"]

## # A tibble: 384 × 1
##    Person      
##    <chr>       
##  1 Thomas_Bayes
##  2 Thomas_Bayes
##  3 Thomas_Bayes
##  4 Thomas_Bayes
##  5 Thomas_Bayes
##  6 Thomas_Bayes
##  7 Thomas_Bayes
##  8 Thomas_Bayes
##  9 Thomas_Bayes
## 10 Thomas_Bayes
## # … with 374 more rows

Was ändert sich im Vegleich zu Vektoren? Innerhalb der eckigen
Klammer befindet sich nun ein Komma. Links vom Komma kann man 1 bis alle
Zeilen auswählen, rechts vom Komma die gewünschten
Spalten. Wenn man es frei lässt, werden alle
ausgewählt. Man kann alternativ auch numerisch auswählen.

tipp_wm[ ,2]

## # A tibble: 384 × 1
##    Person      
##    <chr>       
##  1 Thomas_Bayes
##  2 Thomas_Bayes
##  3 Thomas_Bayes
##  4 Thomas_Bayes
##  5 Thomas_Bayes
##  6 Thomas_Bayes
##  7 Thomas_Bayes
##  8 Thomas_Bayes
##  9 Thomas_Bayes
## 10 Thomas_Bayes
## # … with 374 more rows

Aber man könnte genauso gut mehrere Spalten auswählen. Spalten 1 bis
3 beispielweise mit

tipp_wm[ ,1:3]

## # A tibble: 384 × 3
##    Spieltag Person       Tipp 
##       <dbl> <chr>        <chr>
##  1        1 Thomas_Bayes 2:0  
##  2        2 Thomas_Bayes 1:3  
##  3        2 Thomas_Bayes 0:0  
##  4        2 Thomas_Bayes 1:2  
##  5        3 Thomas_Bayes 2:1  
##  6        3 Thomas_Bayes 3:0  
##  7        3 Thomas_Bayes 0:2  
##  8        3 Thomas_Bayes 4:0  
##  9        4 Thomas_Bayes 2:1  
## 10        4 Thomas_Bayes 3:0  
## # … with 374 more rows

oder Spalten 2 und 4 mit

tipp_wm[ ,c(2, 4)]

## # A tibble: 384 × 2
##    Person       Ergebnis
##    <chr>        <chr>   
##  1 Thomas_Bayes 5:0     
##  2 Thomas_Bayes 0:1     
##  3 Thomas_Bayes 0:1     
##  4 Thomas_Bayes 3:3     
##  5 Thomas_Bayes 2:1     
##  6 Thomas_Bayes 1:1     
##  7 Thomas_Bayes 0:1     
##  8 Thomas_Bayes 2:0     
##  9 Thomas_Bayes 0:1     
## 10 Thomas_Bayes 0:1     
## # … with 374 more rows
…
liste <- list(vec, matrix, big_five)

## [[1]]
## [1] 1 2 3 4
## 
## [[2]]
##      [,1] [,2]
## [1,]    1    5
## [2,]    2    6
## [3,]    3    7
## [4,]    4    8
## 
## [[3]]
## # A tibble: 200 × 8
##    Alter Geschlecht Herkunft Extraversion Neurotizismus Vertra…¹ Gewis…² Offen…³
##    <dbl> <chr>      <chr>           <dbl>         <dbl>    <dbl>   <dbl>   <dbl>
##  1    36 m          DE                3             1.9      3.4     3.3     3.6
##  2    30 f          US                3.1           3.4      3.1     2.7     3.8
##  3    23 m          US                3.4           2.4      3.6     3       3.2
##  4    54 m          US                3.3           4.2      3.6     3       2.9
##  5    24 f          US                3             2.8      3       3.3     3.5
##  6    14 f          US                2.8           3.5      3.2     3.3     3.6
##  7    32 m          HK                3.5           3.1      4.2     3       2.7
##  8    20 m          IN                3.5           2.6      3.5     2.7     2.7
##  9    29 f          IN                3             3.7      3.2     2.9     3.6
## 10    17 m          US                3.1           3.6      3       2.9     3.5
## # … with 190 more rows, and abbreviated variable names ¹​Vertraeglichkeit,
## #   ²​Gewissenhaftigkeit, ³​Offenheit
…
